%YAML 1.1
%TAG !u! tag:unity3d.com,2011:
--- !u!1045 &1
EditorBuildSettings:
  m_ObjectHideFlags: 0
  serializedVersion: 2
  m_Scenes:
  - enabled: 1
    path: Assets/_Scenes/Main Scene.unity
    guid: bfc6461c56fb6664e9b6725eef710257
  - enabled: 1
    path: Assets/_Scenes/RollABall.unity
    guid: 00581967fd5ae3943b4f6fcec6a3682f
  - enabled: 1
    path: Assets/_Scenes/ModifiedScene.unity
    guid: b55aa9c587dcf754686af7352ea27f3a
